{"meta":{"page":{"current-page":1,"per-page":15,"from":1,"to":15,"total":2628,"last-page":176}},"links":{"first":"https:\/\/isinmapping.gleif.org\/api\/v2\/isin-lei?page%5Bnumber%5D=1&page%5Bsize%5D=15","next":"https:\/\/isinmapping.gleif.org\/api\/v2\/isin-lei?page%5Bnumber%5D=2&page%5Bsize%5D=15","last":"https:\/\/isinmapping.gleif.org\/api\/v2\/isin-lei?page%5Bnumber%5D=176&page%5Bsize%5D=15"},"data":[{"type":"isin-lei","id":"d495776d-fd21-45a2-a9a1-08d5d6f68767","attributes":{"fileName":"isin-lei-20260630T071512.zip","uploadedAt":"2026-06-30T07:15:12Z","fileType":"zip","downloadLink":"https:\/\/isinmapping.gleif.org\/api\/v2\/isin-lei\/d495776d-fd21-45a2-a9a1-08d5d6f68767\/download","processed":true,"valid":true},"links":{"self":"https:\/\/isinmapping.gleif.org\/api\/v2\/isin-lei\/d495776d-fd21-45a2-a9a1-08d5d6f68767"}},{"type":"isin-lei","id":"86e28fc3-d953-4964-a666-61f92157a408","attributes":{"fileName":"isin-lei-20260629T071508.zip","uploadedAt":"2026-06-29T07:15:08Z","fileType":"zip","downloadLink":"https:\/\/isinmapping.gleif.org\/api\/v2\/isin-lei\/86e28fc3-d953-4964-a666-61f92157a408\/download","processed":true,"valid":true},"links":{"self":"https:\/\/isinmapping.gleif.org\/api\/v2\/isin-lei\/86e28fc3-d953-4964-a666-61f92157a408"}},{"type":"isin-lei","id":"e7a3a1ae-fb32-465c-8ee6-94079928262b","attributes":{"fileName":"isin-lei-20260628T071512.zip","uploadedAt":"2026-06-28T07:15:12Z","fileType":"zip","downloadLink":"https:\/\/isinmapping.gleif.org\/api\/v2\/isin-lei\/e7a3a1ae-fb32-465c-8ee6-94079928262b\/download","processed":true,"valid":true},"links":{"self":"https:\/\/isinmapping.gleif.org\/api\/v2\/isin-lei\/e7a3a1ae-fb32-465c-8ee6-94079928262b"}},{"type":"isin-lei","id":"2d93e89e-5479-46ed-89e0-4e130de4d574","attributes":{"fileName":"isin-lei-20260627T071509.zip","uploadedAt":"2026-06-27T07:15:09Z","fileType":"zip","downloadLink":"https:\/\/isinmapping.gleif.org\/api\/v2\/isin-lei\/2d93e89e-5479-46ed-89e0-4e130de4d574\/download","processed":true,"valid":true},"links":{"self":"https:\/\/isinmapping.gleif.org\/api\/v2\/isin-lei\/2d93e89e-5479-46ed-89e0-4e130de4d574"}},{"type":"isin-lei","id":"35cd2b50-6b4e-41f3-8d22-6a85408dd87a","attributes":{"fileName":"isin-lei-20260626T071510.zip","uploadedAt":"2026-06-26T07:15:10Z","fileType":"zip","downloadLink":"https:\/\/isinmapping.gleif.org\/api\/v2\/isin-lei\/35cd2b50-6b4e-41f3-8d22-6a85408dd87a\/download","processed":true,"valid":true},"links":{"self":"https:\/\/isinmapping.gleif.org\/api\/v2\/isin-lei\/35cd2b50-6b4e-41f3-8d22-6a85408dd87a"}},{"type":"isin-lei","id":"71b1f548-c571-4190-aed2-f7d0ffe3fda8","attributes":{"fileName":"isin-lei-20260625T071509.zip","uploadedAt":"2026-06-25T07:15:09Z","fileType":"zip","downloadLink":"https:\/\/isinmapping.gleif.org\/api\/v2\/isin-lei\/71b1f548-c571-4190-aed2-f7d0ffe3fda8\/download","processed":true,"valid":true},"links":{"self":"https:\/\/isinmapping.gleif.org\/api\/v2\/isin-lei\/71b1f548-c571-4190-aed2-f7d0ffe3fda8"}},{"type":"isin-lei","id":"4687f421-d65b-44a0-8e89-1cf443f21591","attributes":{"fileName":"isin-lei-20260624T071508.zip","uploadedAt":"2026-06-24T07:15:08Z","fileType":"zip","downloadLink":"https:\/\/isinmapping.gleif.org\/api\/v2\/isin-lei\/4687f421-d65b-44a0-8e89-1cf443f21591\/download","processed":true,"valid":true},"links":{"self":"https:\/\/isinmapping.gleif.org\/api\/v2\/isin-lei\/4687f421-d65b-44a0-8e89-1cf443f21591"}},{"type":"isin-lei","id":"a4e2dfb3-3044-482e-be0b-98f3cc4d60f5","attributes":{"fileName":"isin-lei-20260623T071508.zip","uploadedAt":"2026-06-23T07:15:08Z","fileType":"zip","downloadLink":"https:\/\/isinmapping.gleif.org\/api\/v2\/isin-lei\/a4e2dfb3-3044-482e-be0b-98f3cc4d60f5\/download","processed":true,"valid":true},"links":{"self":"https:\/\/isinmapping.gleif.org\/api\/v2\/isin-lei\/a4e2dfb3-3044-482e-be0b-98f3cc4d60f5"}},{"type":"isin-lei","id":"f832d5a0-5915-4bf7-a038-8832cddd4fb4","attributes":{"fileName":"isin-lei-20260622T071511.zip","uploadedAt":"2026-06-22T07:15:11Z","fileType":"zip","downloadLink":"https:\/\/isinmapping.gleif.org\/api\/v2\/isin-lei\/f832d5a0-5915-4bf7-a038-8832cddd4fb4\/download","processed":true,"valid":true},"links":{"self":"https:\/\/isinmapping.gleif.org\/api\/v2\/isin-lei\/f832d5a0-5915-4bf7-a038-8832cddd4fb4"}},{"type":"isin-lei","id":"9867a6cf-ba6b-4356-95f9-1afecd6f4778","attributes":{"fileName":"isin-lei-20260621T071512.zip","uploadedAt":"2026-06-21T07:15:12Z","fileType":"zip","downloadLink":"https:\/\/isinmapping.gleif.org\/api\/v2\/isin-lei\/9867a6cf-ba6b-4356-95f9-1afecd6f4778\/download","processed":true,"valid":true},"links":{"self":"https:\/\/isinmapping.gleif.org\/api\/v2\/isin-lei\/9867a6cf-ba6b-4356-95f9-1afecd6f4778"}},{"type":"isin-lei","id":"0654a5ad-384c-4a68-80b2-4dbfae3606ac","attributes":{"fileName":"isin-lei-20260620T071511.zip","uploadedAt":"2026-06-20T07:15:11Z","fileType":"zip","downloadLink":"https:\/\/isinmapping.gleif.org\/api\/v2\/isin-lei\/0654a5ad-384c-4a68-80b2-4dbfae3606ac\/download","processed":true,"valid":true},"links":{"self":"https:\/\/isinmapping.gleif.org\/api\/v2\/isin-lei\/0654a5ad-384c-4a68-80b2-4dbfae3606ac"}},{"type":"isin-lei","id":"3e413cbd-a0cb-4815-99c8-e3a7a38dd531","attributes":{"fileName":"isin-lei-20260619T071510.zip","uploadedAt":"2026-06-19T07:15:10Z","fileType":"zip","downloadLink":"https:\/\/isinmapping.gleif.org\/api\/v2\/isin-lei\/3e413cbd-a0cb-4815-99c8-e3a7a38dd531\/download","processed":true,"valid":true},"links":{"self":"https:\/\/isinmapping.gleif.org\/api\/v2\/isin-lei\/3e413cbd-a0cb-4815-99c8-e3a7a38dd531"}},{"type":"isin-lei","id":"0522d0ea-aefc-4550-926f-188abad8a7a4","attributes":{"fileName":"isin-lei-20260618T071509.zip","uploadedAt":"2026-06-18T07:15:09Z","fileType":"zip","downloadLink":"https:\/\/isinmapping.gleif.org\/api\/v2\/isin-lei\/0522d0ea-aefc-4550-926f-188abad8a7a4\/download","processed":true,"valid":true},"links":{"self":"https:\/\/isinmapping.gleif.org\/api\/v2\/isin-lei\/0522d0ea-aefc-4550-926f-188abad8a7a4"}},{"type":"isin-lei","id":"96d2ab02-7235-47b1-9eca-1c4aaca3a328","attributes":{"fileName":"isin-lei-20260617T071508.zip","uploadedAt":"2026-06-17T07:15:08Z","fileType":"zip","downloadLink":"https:\/\/isinmapping.gleif.org\/api\/v2\/isin-lei\/96d2ab02-7235-47b1-9eca-1c4aaca3a328\/download","processed":true,"valid":true},"links":{"self":"https:\/\/isinmapping.gleif.org\/api\/v2\/isin-lei\/96d2ab02-7235-47b1-9eca-1c4aaca3a328"}},{"type":"isin-lei","id":"bcbd258e-9939-4e71-9416-88322b3f6cfd","attributes":{"fileName":"isin-lei-20260616T071510.zip","uploadedAt":"2026-06-16T07:15:10Z","fileType":"zip","downloadLink":"https:\/\/isinmapping.gleif.org\/api\/v2\/isin-lei\/bcbd258e-9939-4e71-9416-88322b3f6cfd\/download","processed":true,"valid":true},"links":{"self":"https:\/\/isinmapping.gleif.org\/api\/v2\/isin-lei\/bcbd258e-9939-4e71-9416-88322b3f6cfd"}}]}